^D:\OPENGL\LOCAL_GIT_REOP\RAGHAVRTRSTUFF\WINDOWS\NATIVE PROGRAMS\FFP\3DPROGRAMS\07_ROBOTICARMWITHNATIVE\ROBOTICARM.CPP
D:\OPENGL\LOCAL_GIT_REOP\RAGHAVRTRSTUFF\WINDOWS\NATIVE PROGRAMS\FFP\3DPROGRAMS\07_ROBOTICARMWITHNATIVE\DEBUG\VC141.PDB
D:\OPENGL\LOCAL_GIT_REOP\RAGHAVRTRSTUFF\WINDOWS\NATIVE PROGRAMS\FFP\3DPROGRAMS\07_ROBOTICARMWITHNATIVE\DEBUG\VC141.IDB
D:\OPENGL\LOCAL_GIT_REOP\RAGHAVRTRSTUFF\WINDOWS\NATIVE PROGRAMS\FFP\3DPROGRAMS\07_ROBOTICARMWITHNATIVE\DEBUG\ROBOTICARM.OBJ
