^C:\OPENGL\LOCAL_GIT_REOP\RAGHAVRTRSTUFF\WINDOWS\NATIVE PROGRAMS\FFP\20_WHITERECTANGLEWITHPERSPECTIVE\WHITERECTANGLEWITHPERSPECTIVE.CPP
C:\OPENGL\LOCAL_GIT_REOP\RAGHAVRTRSTUFF\WINDOWS\NATIVE PROGRAMS\FFP\20_WHITERECTANGLEWITHPERSPECTIVE\DEBUG\VC141.PDB
C:\OPENGL\LOCAL_GIT_REOP\RAGHAVRTRSTUFF\WINDOWS\NATIVE PROGRAMS\FFP\20_WHITERECTANGLEWITHPERSPECTIVE\DEBUG\VC141.IDB
C:\OPENGL\LOCAL_GIT_REOP\RAGHAVRTRSTUFF\WINDOWS\NATIVE PROGRAMS\FFP\20_WHITERECTANGLEWITHPERSPECTIVE\DEBUG\WHITERECTANGLEWITHPERSPECTIVE.OBJ
