^C:\OPENGL\LOCAL_GIT_REOP\RAGHAVRTRSTUFF\WINDOWS\NATIVE PROGRAMS\FFP\07_CENTERINGTHEWINDOW\CREATINGTHEWINDOW.CPP
C:\OPENGL\LOCAL_GIT_REOP\RAGHAVRTRSTUFF\WINDOWS\NATIVE PROGRAMS\FFP\07_CENTERINGTHEWINDOW\DEBUG\VC141.PDB
C:\OPENGL\LOCAL_GIT_REOP\RAGHAVRTRSTUFF\WINDOWS\NATIVE PROGRAMS\FFP\07_CENTERINGTHEWINDOW\DEBUG\VC141.IDB
C:\OPENGL\LOCAL_GIT_REOP\RAGHAVRTRSTUFF\WINDOWS\NATIVE PROGRAMS\FFP\07_CENTERINGTHEWINDOW\DEBUG\CREATINGTHEWINDOW.OBJ
