^C:\OPENGL\LOCAL_GIT_REOP\RAGHAVRTRSTUFF\WINDOWS\NATIVE PROGRAMS\FFP\18_GRAPHPAPERPROGRAM\GRAPHPAPERPROGRAM.CPP
C:\OPENGL\LOCAL_GIT_REOP\RAGHAVRTRSTUFF\WINDOWS\NATIVE PROGRAMS\FFP\18_GRAPHPAPERPROGRAM\DEBUG\VC141.PDB
C:\OPENGL\LOCAL_GIT_REOP\RAGHAVRTRSTUFF\WINDOWS\NATIVE PROGRAMS\FFP\18_GRAPHPAPERPROGRAM\DEBUG\VC141.IDB
C:\OPENGL\LOCAL_GIT_REOP\RAGHAVRTRSTUFF\WINDOWS\NATIVE PROGRAMS\FFP\18_GRAPHPAPERPROGRAM\DEBUG\GRAPHPAPERPROGRAM.OBJ
