^D:\OPENGL\LOCAL_GIT_REOP\RAGHAVRTRSTUFF\WINDOWS\NATIVE PROGRAMS\FFP\31_INCIRCLEWITHPERSPECTIVE\INCRICLEWITHPERSPECTIVE.CPP
D:\OPENGL\LOCAL_GIT_REOP\RAGHAVRTRSTUFF\WINDOWS\NATIVE PROGRAMS\FFP\31_INCIRCLEWITHPERSPECTIVE\DEBUG\VC141.PDB
D:\OPENGL\LOCAL_GIT_REOP\RAGHAVRTRSTUFF\WINDOWS\NATIVE PROGRAMS\FFP\31_INCIRCLEWITHPERSPECTIVE\DEBUG\VC141.IDB
D:\OPENGL\LOCAL_GIT_REOP\RAGHAVRTRSTUFF\WINDOWS\NATIVE PROGRAMS\FFP\31_INCIRCLEWITHPERSPECTIVE\DEBUG\INCRICLEWITHPERSPECTIVE.OBJ
