^D:\OPENGL\LOCAL_GIT_REOP\RAGHAVRTRSTUFF\WINDOWS\NATIVE PROGRAMS\PP\07_3DPYRAMIDANDCUBE\THREEDPYAMIDANDCUBE.CPP
D:\OPENGL\LOCAL_GIT_REOP\RAGHAVRTRSTUFF\WINDOWS\NATIVE PROGRAMS\PP\07_3DPYRAMIDANDCUBE\DEBUG\VC141.PDB
D:\OPENGL\LOCAL_GIT_REOP\RAGHAVRTRSTUFF\WINDOWS\NATIVE PROGRAMS\PP\07_3DPYRAMIDANDCUBE\DEBUG\VC141.IDB
D:\OPENGL\LOCAL_GIT_REOP\RAGHAVRTRSTUFF\WINDOWS\NATIVE PROGRAMS\PP\07_3DPYRAMIDANDCUBE\DEBUG\THREEDPYAMIDANDCUBE.OBJ
