^D:\OPENGL\DATA_STRUCTURE_PROJECT\DATASTRUCTURETREEPROJECT\TREE.CPP
D:\OPENGL\DATA_STRUCTURE_PROJECT\DATASTRUCTURETREEPROJECT\DEBUG\VC141.PDB
D:\OPENGL\DATA_STRUCTURE_PROJECT\DATASTRUCTURETREEPROJECT\DEBUG\VC141.IDB
D:\OPENGL\DATA_STRUCTURE_PROJECT\DATASTRUCTURETREEPROJECT\DEBUG\TREE.OBJ
