^D:\OPENGL\DATA_STRUCTURE_PROJECT\DATASTRUCTURETREEPROJECT\DEBUG\TREE.OBJ|D:\OPENGL\DATA_STRUCTURE_PROJECT\DATASTRUCTURETREEPROJECT\DEBUG\TREE.RES
D:\OPENGL\DATA_STRUCTURE_PROJECT\DATASTRUCTURETREEPROJECT\DEBUG\DATASTRUCTURETREEPROJECT.EXE
D:\OPENGL\DATA_STRUCTURE_PROJECT\DATASTRUCTURETREEPROJECT\DEBUG\DATASTRUCTURETREEPROJECT.ILK
D:\OPENGL\DATA_STRUCTURE_PROJECT\DATASTRUCTURETREEPROJECT\DEBUG\DATASTRUCTURETREEPROJECT.PDB
