^R:\DIRECTX11\04_D3DPERSPECTIVERECTANGLE\D3DPERSPECTIVERECTANGLE.CPP
R:\DIRECTX11\04_D3DPERSPECTIVERECTANGLE\DEBUG\VC142.PDB
R:\DIRECTX11\04_D3DPERSPECTIVERECTANGLE\DEBUG\VC142.IDB
R:\DIRECTX11\04_D3DPERSPECTIVERECTANGLE\DEBUG\D3DPERSPECTIVERECTANGLE.OBJ
