LogFile Successfull created 
 width : 683
 height : 384
  distorsion width : 227
 distorsion height : 96
GL_Version : 4.0.0 - Build 10.18.10.4358 
GL_Shading_Language_Version : 4.00 - Build 10.18.10.4358 
 width : 683
 height : 384
  distorsion width : 227
 distorsion height : 96
Initialization Successfull 
 width : 683
 height : 384
  distorsion width : 227
 distorsion height : 96
 width : 683
 height : 384
  distorsion width : 227
 distorsion height : 96
 width : 683
 height : 384
  distorsion width : 227
 distorsion height : 96
 width : 683
 height : 384
  distorsion width : 227
 distorsion height : 96
 width : 683
 height : 384
  distorsion width : 227
 distorsion height : 96
 width : 683
 height : 384
  distorsion width : 227
 distorsion height : 96
 width : 683
 height : 384
  distorsion width : 227
 distorsion height : 96
LogFile closed Successfully
