d:\opengl\local_git_reop\raghavrtrstuff\windows\native programs\ffp\36_centringofdeathlyhallows\debug\36_centringofdeathlyhallows.exe
d:\opengl\local_git_reop\raghavrtrstuff\windows\native programs\ffp\36_centringofdeathlyhallows\debug\36_centringofdeathlyhallows.ilk
d:\opengl\local_git_reop\raghavrtrstuff\windows\native programs\ffp\36_centringofdeathlyhallows\debug\36_centringofdeathlyhallows.pdb
d:\opengl\local_git_reop\raghavrtrstuff\windows\native programs\ffp\36_centringofdeathlyhallows\debug\vc141.idb
d:\opengl\local_git_reop\raghavrtrstuff\windows\native programs\ffp\36_centringofdeathlyhallows\debug\vc141.pdb
d:\opengl\local_git_reop\raghavrtrstuff\windows\native programs\ffp\36_centringofdeathlyhallows\debug\36_centr.3d7c62e3.tlog\cl.command.1.tlog
d:\opengl\local_git_reop\raghavrtrstuff\windows\native programs\ffp\36_centringofdeathlyhallows\debug\36_centr.3d7c62e3.tlog\link.command.1.tlog
d:\opengl\local_git_reop\raghavrtrstuff\windows\native programs\ffp\36_centringofdeathlyhallows\debug\36_centr.3d7c62e3.tlog\link.read.1.tlog
d:\opengl\local_git_reop\raghavrtrstuff\windows\native programs\ffp\36_centringofdeathlyhallows\debug\36_centr.3d7c62e3.tlog\link.write.1.tlog
