^C:\OPENGL\LOCAL_GIT_REOP\RAGHAVRTRSTUFF\WINDOWS\NATIVE PROGRAMS\FFP\17_HORIZANTALANDVERTICALLINE\DEBUG\HORIZANTALANDVERTICALLINE.OBJ
C:\OPENGL\LOCAL_GIT_REOP\RAGHAVRTRSTUFF\WINDOWS\NATIVE PROGRAMS\FFP\17_HORIZANTALANDVERTICALLINE\DEBUG\17_HORIZANTALANDVERTICALLINE.EXE
C:\OPENGL\LOCAL_GIT_REOP\RAGHAVRTRSTUFF\WINDOWS\NATIVE PROGRAMS\FFP\17_HORIZANTALANDVERTICALLINE\DEBUG\17_HORIZANTALANDVERTICALLINE.ILK
C:\OPENGL\LOCAL_GIT_REOP\RAGHAVRTRSTUFF\WINDOWS\NATIVE PROGRAMS\FFP\17_HORIZANTALANDVERTICALLINE\DEBUG\17_HORIZANTALANDVERTICALLINE.PDB
