^R:\DIRECTX11\04_D3DPERSPECTIVERECTANGLEMETHOD2\D3D11PERSPECTIVERECTANGLE.CPP
R:\DIRECTX11\04_D3DPERSPECTIVERECTANGLEMETHOD2\DEBUG\VC142.PDB
R:\DIRECTX11\04_D3DPERSPECTIVERECTANGLEMETHOD2\DEBUG\VC142.IDB
R:\DIRECTX11\04_D3DPERSPECTIVERECTANGLEMETHOD2\DEBUG\D3D11PERSPECTIVERECTANGLE.OBJ
