^R:\DIRECTX11\04_D3DPERSPECTIVERECTANGLEMETHOD2\DEBUG\D3D11PERSPECTIVERECTANGLE.OBJ
R:\DIRECTX11\04_D3DPERSPECTIVERECTANGLEMETHOD2\DEBUG\04_D3DPERSPECTIVERECTANGLEMETHOD2.EXE
R:\DIRECTX11\04_D3DPERSPECTIVERECTANGLEMETHOD2\DEBUG\04_D3DPERSPECTIVERECTANGLEMETHOD2.ILK
R:\DIRECTX11\04_D3DPERSPECTIVERECTANGLEMETHOD2\DEBUG\04_D3DPERSPECTIVERECTANGLEMETHOD2.PDB
