^C:\OPENGL\LOCAL_GIT_REOP\RAGHAVRTRSTUFF\WINDOWS\NATIVE PROGRAMS\FFP\09_SETWINDOWTEXTWITHOGL\SETWINDOWTEXTWITHOGL.CPP
C:\OPENGL\LOCAL_GIT_REOP\RAGHAVRTRSTUFF\WINDOWS\NATIVE PROGRAMS\FFP\09_SETWINDOWTEXTWITHOGL\DEBUG\VC141.PDB
C:\OPENGL\LOCAL_GIT_REOP\RAGHAVRTRSTUFF\WINDOWS\NATIVE PROGRAMS\FFP\09_SETWINDOWTEXTWITHOGL\DEBUG\VC141.IDB
C:\OPENGL\LOCAL_GIT_REOP\RAGHAVRTRSTUFF\WINDOWS\NATIVE PROGRAMS\FFP\09_SETWINDOWTEXTWITHOGL\DEBUG\SETWINDOWTEXTWITHOGL.OBJ
